Impact of Health Factors on Life Expectancy in Rust Belt States
…
Life expectancy was chosen as our outcome variable due to its ease for interpretation, in comparison to other measures of mortality.

Percentage of uninsured adults is of interest because health insurance coverage is a large barrier to providing health care access in many communities.

Higher education is typically thought to lead to better paying jobs, which provide better health insurance and quality health care.

Median household income is a strong indicator of income inequality between counties, which is directly linked to differences in health care outcomes.

Food environment is important to maintaining a healthy lifestyle, and there is strong evidence food deserts plays a role in health outcomes.

3.3 Proposal Requirement 3

chr_2020

# A tibble: 330 x 10
   fipscode state county life_expectancy uninsured_adults some_college
   <chr>    <fct> <chr>            <dbl>            <dbl>        <dbl>
 1 18001    IN    Adams~            79.0            13.3          52.3
 2 18003    IN    Allen~            77.1            11.0          66.8
 3 18005    IN    Barth~            78.2            11.0          66.7
 4 18007    IN    Bento~            79.3            12.2          59.2
 5 18009    IN    Black~            75.1             9.83         55.0
 6 18011    IN    Boone~            78.6             7.43         80.0
 7 18013    IN    Brown~            78.4            11.3          65.0
 8 18015    IN    Carro~            79.3            11.3          54.2
 9 18017    IN    Cass ~            76.0            15.0          49.6
10 18019    IN    Clark~            74.9             9.89         63.8
# ... with 320 more rows, and 4 more variables: median_household_income <dbl>,
#   food_environment_index <dbl>, food_binary <fct>, income_cat <fct>
…
3.7 Proposal Requirement 5

The most challenging part of assembling the proposal was determining how to deal with the missing values for the Food Environment Index. The missing values prevented us from separating the Food Environment Index values into the desired binary categories. While we determined that the missing values were the issue relatively quickly, we were not sure how to create the categories without creating another data set. We tried to assign the missing values to a third category but this initially did not work. However, eventually the desired result was achieved after excluding the missing values when calculating the median. In the end, we also combined the missing values category with one of the others to maintain the binary nature of the variable.

4 Analysis 1

4.1 The Variables

life_college <- chr_2020 %>%
    select(state, county, life_expectancy, some_college) %>%
    filter(complete.cases(life_expectancy, some_college))

life_college

# A tibble: 330 x 4
   state county             life_expectancy some_college
   <fct> <chr>                        <dbl>        <dbl>
 1 IN    Adams County                  79.0         52.3
 2 IN    Allen County                  77.1         66.8
 3 IN    Bartholomew County            78.2         66.7
 4 IN    Benton County                 79.3         59.2
 5 IN    Blackford County              75.1         55.0
 6 IN    Boone County                  78.6         80.0
 7 IN    Brown County                  78.4         65.0
 8 IN    Carroll County                79.3         54.2
 9 IN    Cass County                   76.0         49.6
10 IN    Clark County                  74.9         63.8
# ... with 320 more rows
…
This analysis sought to discern the association of life_expectancy and some_college in 330 counties between the states of Indiana, Michigan, Ohio, and Pennsylvania. A positive relationship was found between average life expectancy and percentage of adults with some form of post-secondary education in these counties. The linear model predicts life_expectancy to be equal to an increase of 0.08 years for every percentage of adults with some form of post-secondary education in a county, when starting at 72.87 years of age. The QQ plot of the residuals of the linear model indicate that the data is fairly close to a normal distribution. This is also supported by the histogram of the residuals.

A key limitation is that this analysis only looks at data at the county level. Counties themselves are segregated by neighborhoods of varying socioeconomic factors and race which may confound the data. It cannot be said if interpretations from this analysis would apply equally to all residents of a county. A closer analysis would require further stratification of the data set to account for these differences.

5 Analysis 2

5.1 The Variables

life_income <- chr_2020 %>%
    select(state, county, life_expectancy, income_cat) %>%
    filter(complete.cases(life_expectancy, income_cat))

life_income

# A tibble: 330 x 4
   state county             life_expectancy income_cat    
   <fct> <chr>                        <dbl> <fct>         
 1 IN    Adams County                  79.0 3_upper_middle
 2 IN    Allen County                  77.1 2_lower_middle
 3 IN    Bartholomew County            78.2 3_upper_middle
 4 IN    Benton County                 79.3 2_lower_middle
 5 IN    Blackford County              75.1 2_lower_middle
 6 IN    Boone County                  78.6 4_upper       
 7 IN    Brown County                  78.4 3_upper_middle
 8 IN    Carroll County                79.3 3_upper_middle
 9 IN    Cass County                   76.0 2_lower_middle
10 IN    Clark County                  74.9 3_upper_middle
# ... with 320 more rows
…
The primary concern for this analysis is a relative lack of normality in the life expectancies and therefore the residuals for the counties in the lowest and highest income categories. This suggests that these categories may be better represented through further subdivision. Alternatively, quantitative values for median household income could be used in the analysis rather than categories. Furthermore, this analysis applies only to the county level and the conclusions drawn cannot be applied to individual households either in the states of interest or elsewhere.

6 Analysis 3

6.1 The Variables

life_uninsured <- chr_2020 %>%
    select(state, county, life_expectancy, uninsured_adults) %>%
    filter(complete.cases(life_expectancy, uninsured_adults)) %>%
    mutate(state = fct_relevel(state, 'OH', 'IN', 'MI', 'PA'))

life_uninsured

# A tibble: 330 x 4
   state county             life_expectancy uninsured_adults
   <fct> <chr>                        <dbl>            <dbl>
 1 IN    Adams County                  79.0            13.3 
 2 IN    Allen County                  77.1            11.0 
 3 IN    Bartholomew County            78.2            11.0 
 4 IN    Benton County                 79.3            12.2 
 5 IN    Blackford County              75.1             9.83
 6 IN    Boone County                  78.6             7.43
 7 IN    Brown County                  78.4            11.3 
 8 IN    Carroll County                79.3            11.3 
 9 IN    Cass County                   76.0            15.0 
10 IN    Clark County                  74.9             9.89
# ... with 320 more rows
…
